…
  - Tomar las 5 variedades mas sembradas de cada GM y ver distribucion
    de rendimientos (por zona, para no meter ruido del potencial de las
    mismas??

## Variedades

    #> # A tibble: 147 x 2
    #>    variedad     n
    #>    <chr>    <int>
    #>  1 DM4612     362
    #>  2 NA5009     294
    #>  3 CZ4.97     241
    #>  4 DM40R16    167
    #>  5 DM4615      90
    #>  6 DM50I17     87
    #>  7 SY5X1       77
    #>  8 NS4619      75
    #>  9 CZ4505      72
    #> 10 DM46R18     70
    #> # … with 137 more rows
…
